[
  {
    "cloudName": "AzureCloud",
    "id": "dff0f7d2-f481-4cb7-9714-9f6731eab28f",
    "isDefault": true,
    "name": "CBAzureSandbox",
    "state": "Enabled",
    "tenantId": "92c085a2-3bee-438f-837f-c4bb61a3bdcb",
    "user": {
      "name": "b.hirons@contentbloom.com",
      "type": "user"
    }
  }
]